…
Lands transferring income and new properties construction volume have all fallen into the negative range:

## # A tibble: 40 × 5
##    date       mortgage_loans_… real_estate_inv… new_constructio… land_transfer_y…
##    <chr>                 <dbl>            <dbl>            <dbl>            <dbl>
##  1 2021/8/31           -0.0798           0.0026          -0.168           -0.0621
##  2 2021/7/31           -0.133            0.0137          -0.215           -0.0485
##  3 2021/6/30           -0.0305           0.0593          -0.038           -0.0566
##  4 2021/5/31            0.0427           0.0984          -0.0607          -0.205 
##  5 2021/4/30            0.22             0.137           -0.0932          -0.292 
##  6 2021/3/31            0.311            0.147            0.0725          -0.172 
##  7 2021/2/28            0.637            0.383            0.643            0.143 
##  8 2020/12/31           0.0371           0.0935           0.0633           0.174 
##  9 2020/11/30           0.183            0.109            0.0412           0.161 
## 10 2020/10/31           0.130            0.127            0.0352           0.148 
## # … with 30 more rows
…
